ReprodResearch_CourseProj_ActivityAnalysis
…
activity %>% select(interval,steps) %>% group_by(interval) %>% miss_var_summary() %>% filter(n_miss>0)

## # A tibble: 288 x 4
## # Groups:   interval [288]
##    interval variable n_miss pct_miss
##       <int> <chr>     <int>    <dbl>
##  1        0 steps         8     13.1
##  2        5 steps         8     13.1
##  3       10 steps         8     13.1
##  4       15 steps         8     13.1
##  5       20 steps         8     13.1
##  6       25 steps         8     13.1
##  7       30 steps         8     13.1
##  8       35 steps         8     13.1
##  9       40 steps         8     13.1
## 10       45 steps         8     13.1
## # ... with 278 more rows
…
